[
    {
        "role":"Programmer",
        "company":"CSE Entertainment Oy",
        "summary":"Programming and game development for touch devices and motion tracking systems.",
        "range":"January 2021 - Present"
    },
    {
        "role":"Programmer",
        "company":"Kajaani University of Applied Sciences - AI Demo Stand",
        "summary":"Programming a front end for a machine learning AI that rates user likeness to finnish celebrities.",
        "range":"October 2020 - December 2020"
    },
    {
        "role":"Programmer",
        "company":"Kajaani University of Applied Sciences - Arctic Lakeland Trails",
        "summary":"Programming a set of [embedded minigames](/projects/creations/arctic-lakeland-trails/) for a [mobile travel app](https://play.google.com/store/apps/details?id=fi.kamkhub.arcticlakelandkainuu).",
        "range":"June 2020 - August 2020"
    },
    {
        "role":"Trainee",
        "company":"Frozen Vision Oy",
        "summary":"Programming and development of a game prototype for mobile devices.",
        "range":"January 2017 - May 2017"
    },
    {
        "role":"Trainee",
        "company":"BelleGames Oy Ltd",
        "summary":"Game development, design, programming.",
        "range":"December 2015 - February 2016"
    }
]
