[
  {
    "grouping":"Game Engines",
    "skills":[
      {"name":"Unity", "link":"https://unity.com/"},
      {"name":"SDL2", "link":"https://www.libsdl.org/"},
      {"name":"Urho3D", "link":"https://urho3d.github.io/"},
      {"name":"Core Games", "link":"https://www.coregames.com/"}
    ]
  },
  {
      "grouping":"Languages",
      "skills":[ {"name":"C#","icon":"unity"},"C++","SQL","Python","Lua","JavaScript"]
  },
  {
    "grouping":"Supporting tools",
    "skills": [
      "git",
      {"name":"Blender","link":"https://www.blender.org/"}, 
      {"name":"Autodesk 3ds Max","link":"https://www.autodesk.com/products/3ds-max/"}, 
      {"name":"GIMP","link":"https://www.gimp.org/"}, 
      {"name":"Adobe Photoshop","link":"https://www.adobe.com/products/photoshop.html"}, 
      {"name":"HitFilm","link":"https://fxhome.com/hitfilm-express"}
    ]
  }
]